{
  "required": true,
  "package": "com.biom4st3r.moenchantments.mixin",
  "compatibilityLevel": "JAVA_8",
  "requires": {
    "fabric": "*"
  },
  "mixins": [
    "EnchantmentHelperMixin",
    "BlockMixin",
    "LivingEntityMixin",
    "PlayerEntityMixin",
    "ItemStackMixin",
    "ThrownPotionEntityMixin",
    "PlayerInventoryMxn",
    "ServerPECopyFromMxn"
  ],
  "server":[
    "PostInit"
  ],
  "client": [
    "ItemStackClientMixin",
    "MinecraftClientMixin",
    "PostInitClient"
  ],
  "injectors": {
    "defaultRequire": 1
  }
}
